readme
…
disdate - Hospital Discharge Date

fdate - Date of last Follow Up

los - Length of Hospital Stay

dstat - Discharge Status from Hospital (0 = Alive, 1 = Dead)

lenfol - Total Length of Follow-up

fstat - Vital Status at Last Follow-up (0 = Alive 1 = Dead)

The first ten rows look like

# A tibble: 500 × 22
      id   age gender    hr sysbp diasbp   bmi   cvd   afb   sho   chf   av3
   <dbl> <dbl>  <dbl> <dbl> <dbl>  <dbl> <dbl> <dbl> <dbl> <dbl> <dbl> <dbl>
 1     1    83      0    89   152     78  25.5     1     1     0     0     0
 2     2    49      0    84   120     60  24.0     1     0     0     0     0
 3     3    70      1    83   147     88  22.1     0     0     0     0     0
 4     4    70      0    65   123     76  26.6     1     0     0     1     0
 5     5    70      0    63   135     85  24.4     1     0     0     0     0
 6     6    70      0    76    83     54  23.2     1     0     0     0     1
 7     7    57      0    73   191    116  39.5     1     0     0     0     0
 8     8    55      0    91   147     95  27.1     1     0     0     0     0
 9     9    88      1    63   209    100  27.4     1     0     0     1     0
10    10    54      0   104   166    106  25.5     1     0     0     0     0
# ℹ 490 more rows
# ℹ 10 more variables: miord <dbl>, mitype <dbl>, year <dbl>, admitdata <chr>,
#   disdate <chr>, fdate <chr>, los <dbl>, dstat <dbl>, lenfol <dbl>,
#   fstat <dbl>
…
